<html>
    <head>
        <link rel="stylesheet" href="https://www.w3schools.com/w3css/4/w3.css">
        <script src = ""https://ajax.googleapis.com/ajax/libs/jquery/3.3.1/jquery.min.js">

        // <script>
        //     $document.ready(function(){
        //         $("class").add("<p>lastpage</p>"){

        //          });
        //         });
        // </script>
        <body>
            <p>This is it</p>
            <p>What the hell</p>
            <p>Next level</p>
        </body>
        
